[
  {
    "id": 11,
    "coordenadas": { "latitud": -34.60518, "longitud": -58.379437 },
    "provincia": { "id": "02", "nombre": "Ciudad Autónoma de Buenos Aires" },
    "departamento": { "id": "02007", "nombre": "Comuna 1" },
    "municipio": { "id": null, "nombre": null },
    "localidad": { "id": "02007010005", "nombre": "SAN NICOLAS" },
    "calle": { "id": "0200701010675", "nombre": "SUIPACHA" },
    "altura": "268",
    "codigoPostal": "C1008AAF",
    "direccion": "Suipacha 268",
    "comentarios": null
  },
  {
    "id": 12,
    "coordenadas": { "latitud": -34.603213, "longitud": -58.37145 },
    "provincia": { "id": "02", "nombre": "Ciudad Autónoma de Buenos Aires" },
    "departamento": { "id": "02007", "nombre": "Comuna 1" },
    "municipio": { "id": null, "nombre": null },
    "localidad": { "id": "02007010005", "nombre": "SAN NICOLAS" },
    "calle": { "id": "0200701001185", "nombre": "AV CORRIENTES" },
    "altura": "316",
    "codigoPostal": "C1043AAQ",
    "direccion": "Corrientes 316",
    "comentarios": null
  },
  {
    "id": 13,
    "coordenadas": { "latitud": -24.800401, "longitud": -65.416014 },
    "provincia": { "id": "66", "nombre": "Salta" },
    "departamento": { "id": "66028", "nombre": "Capital" },
    "municipio": { "id": "660063", "nombre": "Salta" },
    "localidad": { "id": null, "nombre": null },
    "calle": { "id": "6602805007390", "nombre": "CARLOS PELLEGRINI" },
    "altura": "897",
    "codigoPostal": "A4402FYQ",
    "direccion": "Carlos Pellegrini 897",
    "comentarios": null
  },
  {
    "id": 14,
    "coordenadas": { "latitud": -34.60389, "longitud": -58.372687 },
    "provincia": { "id": "02", "nombre": "Ciudad Autónoma de Buenos Aires" },
    "departamento": { "id": "02007", "nombre": "Comuna 1" },
    "municipio": { "id": null, "nombre": null },
    "localidad": { "id": "02007010005", "nombre": "SAN NICOLAS" },
    "calle": { "id": "0200701009835", "nombre": "RECONQUISTA" },
    "altura": "336",
    "codigoPostal": "C1003ABH",
    "direccion": "Reconquista 336",
    "comentarios": null
  },
  {
    "id": 15,
    "coordenadas": { "latitud": -34.553506, "longitud": -58.488726 },
    "provincia": { "id": "02", "nombre": "Ciudad Autónoma de Buenos Aires" },
    "departamento": { "id": "02084", "nombre": "Comuna 12" },
    "municipio": { "id": null, "nombre": null },
    "localidad": { "id": "02084010002", "nombre": "SAAVEDRA" },
    "calle": { "id": "0208401006305", "nombre": "HOLMBERG" },
    "altura": "4156",
    "codigoPostal": "C1430DQF",
    "direccion": "Holmerg 4156",
    "comentarios": null
  },
  {
    "id": 16,
    "coordenadas": { "latitud": -34.627087, "longitud": -58.378072 },
    "provincia": { "id": "02", "nombre": "Ciudad Autónoma de Buenos Aires" },
    "departamento": { "id": "02007", "nombre": "Comuna 1" },
    "municipio": { "id": null, "nombre": null },
    "localidad": { "id": "02007010001", "nombre": "CONSTITUCION" },
    "calle": { "id": "0200701001065", "nombre": "AV BRASIL" },
    "altura": "969",
    "codigoPostal": "C1154AAO",
    "direccion": "Brasil 969",
    "comentarios": null
  },
  {
    "id": 17,
    "coordenadas": { "latitud": -34.636152, "longitud": -58.379665 },
    "provincia": { "id": "02", "nombre": "Ciudad Autónoma de Buenos Aires" },
    "departamento": { "id": "02028", "nombre": "Comuna 4" },
    "municipio": { "id": null, "nombre": null },
    "localidad": { "id": "02028010001", "nombre": "BARRACAS" },
    "calle": { "id": "0202801006130", "nombre": "GUANAHANI" },
    "altura": "580",
    "codigoPostal": "C1274ACJ",
    "direccion": "Guanahani 580",
    "comentarios": null
  },
  {
    "id": 18,
    "coordenadas": { "latitud": -34.511913, "longitud": -58.521996 },
    "provincia": { "id": "06", "nombre": "Buenos Aires" },
    "departamento": { "id": "06861", "nombre": "Vicente López" },
    "municipio": { "id": "060861", "nombre": "Vicente López" },
    "localidad": { "id": "06861010006", "nombre": "OLIVOS" },
    "calle": { "id": "0686101000155", "nombre": "AUT PANAMERICANA" },
    "altura": null,
    "codigoPostal": "1640",
    "direccion": "Panamericana (ascendente) y acceso Debenedetti",
    "comentarios": null
  },
  {
    "id": 19,
    "coordenadas": { "latitud": -34.501619, "longitud": -58.71266 },
    "provincia": { "id": "06", "nombre": "Buenos Aires" },
    "departamento": { "id": "06515", "nombre": "Malvinas Argentinas" },
    "municipio": { "id": "060515", "nombre": "Malvinas Argentinas" },
    "localidad": { "id": "06515010005", "nombre": "LOS POLVORINES" },
    "calle": {
      "id": "0651501000165",
      "nombre": "AV DEL SESQUICENTENARIO RUTA PCIAL 24"
    },
    "altura": "1701",
    "codigoPostal": "B1615DQX",
    "direccion": "AV  DEL SESQUICENTENARIO 1701",
    "comentarios": null
  },
  {
    "id": 20,
    "coordenadas": { "latitud": -34.443526, "longitud": -58.558062 },
    "provincia": { "id": "06", "nombre": "Buenos Aires" },
    "departamento": { "id": "06749", "nombre": "San Fernando" },
    "municipio": { "id": "060749", "nombre": "San Fernando" },
    "localidad": { "id": "06749010001", "nombre": "SAN FERNANDO" },
    "calle": { "id": "0674901000190", "nombre": "BELGRANO" },
    "altura": "1182",
    "codigoPostal": "B1646CQX",
    "direccion": "BELGRANO 1182",
    "comentarios": null
  },
  {
    "id": 21,
    "coordenadas": { "latitud": -31.588513, "longitud": -60.725744 },
    "provincia": { "id": "82", "nombre": "Santa Fe" },
    "departamento": { "id": "82063", "nombre": "La Capital" },
    "municipio": { "id": "820147", "nombre": "Santa Fe" },
    "localidad": { "id": "82063170000", "nombre": "SANTA FE" },
    "calle": { "id": "8206317000230", "nombre": "AV BLAS PARERA" },
    "altura": "7901",
    "codigoPostal": "S3006FSM",
    "direccion": "Blas Parera 7901",
    "comentarios": null
  },
  {
    "id": 22,
    "coordenadas": { "latitud": -32.890638, "longitud": -68.832951 },
    "provincia": { "id": "50", "nombre": "Mendoza" },
    "departamento": { "id": "50007", "nombre": "Capital" },
    "municipio": { "id": "500007", "nombre": "Capital" },
    "localidad": { "id": null, "nombre": null },
    "calle": { "id": "5000701001970", "nombre": "JOSE F MORENO" },
    "altura": "1150",
    "codigoPostal": "M5500AWH",
    "direccion": "Moreno 1150",
    "comentarios": null
  },
  {
    "id": 23,
    "coordenadas": { "latitud": -34.807169, "longitud": -58.274857 },
    "provincia": { "id": "06", "nombre": "Buenos Aires" },
    "departamento": { "id": "06274", "nombre": "Florencio Varela" },
    "municipio": { "id": "060274", "nombre": "Florencio Varela" },
    "localidad": { "id": "06274010003", "nombre": "FLORENCIO VARELA" },
    "calle": {
      "id": "0627401000435",
      "nombre": "BERNARDO DE MONTEAGUDO - 203"
    },
    "altura": "3031",
    "codigoPostal": "B1888ENS",
    "direccion": "Bernardo de Monteagudo 203 3031",
    "comentarios": null
  },
  {
    "id": 24,
    "coordenadas": { "latitud": -26.8046, "longitud": -65.293436 },
    "provincia": { "id": "90", "nombre": "Tucumán" },
    "departamento": { "id": "90119", "nombre": "Yerba Buena" },
    "municipio": { "id": "908560", "nombre": "Municipalidad de Yerba Buena" },
    "localidad": { "id": null, "nombre": null },
    "calle": { "id": "9011903001205", "nombre": "LOBO DE LA VEGA" },
    "altura": null,
    "codigoPostal": "T4174XBL",
    "direccion": "Lobo de la Vega esquina Higueritas",
    "comentarios": "Local 2"
  },
  {
    "id": 25,
    "coordenadas": { "latitud": -34.833672, "longitud": -58.505456 },
    "provincia": { "id": "06", "nombre": "Buenos Aires" },
    "departamento": { "id": "06260", "nombre": "Esteban Echeverría" },
    "municipio": { "id": "060260", "nombre": "Esteban Echeverría" },
    "localidad": { "id": "06260010002", "nombre": "EL JAGÜEL" },
    "calle": { "id": "0626001002630", "nombre": "NORBERTO LOPEZ" },
    "altura": "3650",
    "codigoPostal": "B1805ABZ",
    "direccion": "Norberto Lopez 3650",
    "comentarios": null
  }
]
